
{
  "header": {
    "reportVersion": 1,
    "event": "Allocation failed - JavaScript heap out of memory",
    "trigger": "FatalError",
    "filename": "report.20200606.030411.15069.0.001.json",
    "dumpEventTime": "2020-06-06T03:04:11Z",
    "dumpEventTimeStamp": "1591401851111",
    "processId": 15069,
    "cwd": "/Users/anton/Desktop/JavaScript/finding-vulnerabilities-project/server",
    "commandLine": [
      "node",
      "/Users/anton/Desktop/JavaScript/finding-vulnerabilities-project/server/dist/main"
    ],
    "nodejsVersion": "v13.8.0",
    "wordSize": 64,
    "arch": "x64",
    "platform": "darwin",
    "componentVersions": {
      "node": "13.8.0",
      "v8": "7.9.317.25-node.28",
      "uv": "1.34.1",
      "zlib": "1.2.11",
      "brotli": "1.0.7",
      "ares": "1.15.0",
      "modules": "79",
      "nghttp2": "1.40.0",
      "napi": "5",
      "llhttp": "2.0.4",
      "openssl": "1.1.1d",
      "cldr": "36.0",
      "icu": "65.1",
      "tz": "2019c",
      "unicode": "12.1"
    },
    "release": {
      "name": "node",
      "headersUrl": "https://nodejs.org/download/release/v13.8.0/node-v13.8.0-headers.tar.gz",
      "sourceUrl": "https://nodejs.org/download/release/v13.8.0/node-v13.8.0.tar.gz"
    },
    "osName": "Darwin",
    "osRelease": "19.4.0",
    "osVersion": "Darwin Kernel Version 19.4.0: Wed Mar  4 22:28:40 PST 2020; root:xnu-6153.101.6~15/RELEASE_X86_64",
    "osMachine": "x86_64",
    "cpus": [
      {
        "model": "Intel(R) Core(TM) i5-8279U CPU @ 2.40GHz",
        "speed": 2400,
        "user": 4312650,
        "nice": 0,
        "sys": 3343060,
        "idle": 12521850,
        "irq": 0
      },
      {
        "model": "Intel(R) Core(TM) i5-8279U CPU @ 2.40GHz",
        "speed": 2400,
        "user": 637900,
        "nice": 0,
        "sys": 437820,
        "idle": 19098080,
        "irq": 0
      },
      {
        "model": "Intel(R) Core(TM) i5-8279U CPU @ 2.40GHz",
        "speed": 2400,
        "user": 3979870,
        "nice": 0,
        "sys": 2379080,
        "idle": 13814910,
        "irq": 0
      },
      {
        "model": "Intel(R) Core(TM) i5-8279U CPU @ 2.40GHz",
        "speed": 2400,
        "user": 626700,
        "nice": 0,
        "sys": 382710,
        "idle": 19164380,
        "irq": 0
      },
      {
        "model": "Intel(R) Core(TM) i5-8279U CPU @ 2.40GHz",
        "speed": 2400,
        "user": 3523800,
        "nice": 0,
        "sys": 2025860,
        "idle": 14624190,
        "irq": 0
      },
      {
        "model": "Intel(R) Core(TM) i5-8279U CPU @ 2.40GHz",
        "speed": 2400,
        "user": 625300,
        "nice": 0,
        "sys": 353360,
        "idle": 19195110,
        "irq": 0
      },
      {
        "model": "Intel(R) Core(TM) i5-8279U CPU @ 2.40GHz",
        "speed": 2400,
        "user": 3253210,
        "nice": 0,
        "sys": 1787800,
        "idle": 15132810,
        "irq": 0
      },
      {
        "model": "Intel(R) Core(TM) i5-8279U CPU @ 2.40GHz",
        "speed": 2400,
        "user": 630390,
        "nice": 0,
        "sys": 334820,
        "idle": 19208530,
        "irq": 0
      }
    ],
    "networkInterfaces": [
      {
        "name": "lo0",
        "internal": true,
        "mac": "00:00:00:00:00:00",
        "address": "127.0.0.1",
        "netmask": "255.0.0.0",
        "family": "IPv4"
      },
      {
        "name": "lo0",
        "internal": true,
        "mac": "00:00:00:00:00:00",
        "address": "::1",
        "netmask": "ffff:ffff:ffff:ffff:ffff:ffff:ffff:ffff",
        "family": "IPv6",
        "scopeid": 0
      },
      {
        "name": "lo0",
        "internal": true,
        "mac": "00:00:00:00:00:00",
        "address": "fe80::1",
        "netmask": "ffff:ffff:ffff:ffff::",
        "family": "IPv6",
        "scopeid": 1
      },
      {
        "name": "en5",
        "internal": false,
        "mac": "ac:de:48:00:11:22",
        "address": "fe80::aede:48ff:fe00:1122",
        "netmask": "ffff:ffff:ffff:ffff::",
        "family": "IPv6",
        "scopeid": 4
      },
      {
        "name": "en0",
        "internal": false,
        "mac": "a4:83:e7:3c:48:9f",
        "address": "fe80::1884:949b:108b:f1ea",
        "netmask": "ffff:ffff:ffff:ffff::",
        "family": "IPv6",
        "scopeid": 6
      },
      {
        "name": "en0",
        "internal": false,
        "mac": "a4:83:e7:3c:48:9f",
        "address": "192.168.1.7",
        "netmask": "255.255.255.0",
        "family": "IPv4"
      },
      {
        "name": "awdl0",
        "internal": false,
        "mac": "1a:ca:fb:0c:c9:c4",
        "address": "fe80::18ca:fbff:fe0c:c9c4",
        "netmask": "ffff:ffff:ffff:ffff::",
        "family": "IPv6",
        "scopeid": 8
      },
      {
        "name": "llw0",
        "internal": false,
        "mac": "1a:ca:fb:0c:c9:c4",
        "address": "fe80::18ca:fbff:fe0c:c9c4",
        "netmask": "ffff:ffff:ffff:ffff::",
        "family": "IPv6",
        "scopeid": 9
      },
      {
        "name": "utun0",
        "internal": false,
        "mac": "00:00:00:00:00:00",
        "address": "fe80::89ec:64b8:a449:c741",
        "netmask": "ffff:ffff:ffff:ffff::",
        "family": "IPv6",
        "scopeid": 15
      },
      {
        "name": "utun1",
        "internal": false,
        "mac": "00:00:00:00:00:00",
        "address": "fe80::e50e:d415:f6c5:7af8",
        "netmask": "ffff:ffff:ffff:ffff::",
        "family": "IPv6",
        "scopeid": 16
      },
      {
        "name": "utun2",
        "internal": false,
        "mac": "00:00:00:00:00:00",
        "address": "fe80::351e:7512:a39d:e5e",
        "netmask": "ffff:ffff:ffff:ffff::",
        "family": "IPv6",
        "scopeid": 17
      },
      {
        "name": "utun3",
        "internal": false,
        "mac": "00:00:00:00:00:00",
        "address": "fe80::7072:2a68:cd74:271b",
        "netmask": "ffff:ffff:ffff:ffff::",
        "family": "IPv6",
        "scopeid": 18
      }
    ],
    "host": "Antons-MacBook.local"
  },
  "javascriptStack": {
    "message": "No stack.",
    "stack": [
      "Unavailable."
    ]
  },
  "nativeStack": [
    {
      "pc": "0x000000010015a0e2",
      "symbol": "report::TriggerNodeReport(v8::Isolate*, node::Environment*, char const*, char const*, std::__1::basic_string<char, std::__1::char_traits<char>, std::__1::allocator<char> > const&, v8::Local<v8::String>) [/usr/local/bin/node]"
    },
    {
      "pc": "0x00000001000824c0",
      "symbol": "node::OnFatalError(char const*, char const*) [/usr/local/bin/node]"
    },
    {
      "pc": "0x0000000100182ba7",
      "symbol": "v8::Utils::ReportOOMFailure(v8::internal::Isolate*, char const*, bool) [/usr/local/bin/node]"
    },
    {
      "pc": "0x0000000100182b43",
      "symbol": "v8::internal::V8::FatalProcessOutOfMemory(v8::internal::Isolate*, char const*, bool) [/usr/local/bin/node]"
    },
    {
      "pc": "0x000000010030afc5",
      "symbol": "v8::internal::Heap::FatalProcessOutOfMemory(char const*) [/usr/local/bin/node]"
    },
    {
      "pc": "0x000000010030c6a4",
      "symbol": "v8::internal::Heap::RecomputeLimits(v8::internal::GarbageCollector) [/usr/local/bin/node]"
    },
    {
      "pc": "0x000000010030943e",
      "symbol": "v8::internal::Heap::PerformGarbageCollection(v8::internal::GarbageCollector, v8::GCCallbackFlags) [/usr/local/bin/node]"
    },
    {
      "pc": "0x0000000100307426",
      "symbol": "v8::internal::Heap::CollectGarbage(v8::internal::AllocationSpace, v8::internal::GarbageCollectionReason, v8::GCCallbackFlags) [/usr/local/bin/node]"
    },
    {
      "pc": "0x0000000100312daa",
      "symbol": "v8::internal::Heap::AllocateRawWithLightRetrySlowPath(int, v8::internal::AllocationType, v8::internal::AllocationOrigin, v8::internal::AllocationAlignment) [/usr/local/bin/node]"
    },
    {
      "pc": "0x0000000100312e31",
      "symbol": "v8::internal::Heap::AllocateRawWithRetryOrFailSlowPath(int, v8::internal::AllocationType, v8::internal::AllocationOrigin, v8::internal::AllocationAlignment) [/usr/local/bin/node]"
    },
    {
      "pc": "0x00000001002e0176",
      "symbol": "v8::internal::Factory::NewFillerObject(int, bool, v8::internal::AllocationType, v8::internal::AllocationOrigin) [/usr/local/bin/node]"
    },
    {
      "pc": "0x0000000100621338",
      "symbol": "v8::internal::Runtime_AllocateInYoungGeneration(int, unsigned long*, v8::internal::Isolate*) [/usr/local/bin/node]"
    },
    {
      "pc": "0x0000000100954639",
      "symbol": "Builtins_CEntry_Return1_DontSaveFPRegs_ArgvOnStack_NoBuiltinExit [/usr/local/bin/node]"
    },
    {
      "pc": "0x00000001008e1e1a",
      "symbol": "Builtins_GrowFastSmiOrObjectElements [/usr/local/bin/node]"
    }
  ],
  "javascriptHeap": {
    "totalMemory": 2150977536,
    "totalCommittedMemory": 2149557008,
    "usedMemory": 2145052976,
    "availableMemory": 48680864,
    "memoryLimit": 2197815296,
    "heapSpaces": {
      "read_only_space": {
        "memorySize": 262144,
        "committedMemory": 33328,
        "capacity": 33040,
        "used": 33040,
        "available": 0
      },
      "new_space": {
        "memorySize": 2097152,
        "committedMemory": 1330288,
        "capacity": 1047424,
        "used": 345728,
        "available": 701696
      },
      "old_space": {
        "memorySize": 2075271168,
        "committedMemory": 2075131040,
        "capacity": 2072452712,
        "used": 2072358728,
        "available": 93984
      },
      "code_space": {
        "memorySize": 692224,
        "committedMemory": 538784,
        "capacity": 411136,
        "used": 411136,
        "available": 0
      },
      "map_space": {
        "memorySize": 1839104,
        "committedMemory": 1707824,
        "capacity": 1205680,
        "used": 1205680,
        "available": 0
      },
      "large_object_space": {
        "memorySize": 70766592,
        "committedMemory": 70766592,
        "capacity": 70695880,
        "used": 70695880,
        "available": 0
      },
      "code_large_object_space": {
        "memorySize": 49152,
        "committedMemory": 49152,
        "capacity": 2784,
        "used": 2784,
        "available": 0
      },
      "new_large_object_space": {
        "memorySize": 0,
        "committedMemory": 0,
        "capacity": 1047424,
        "used": 0,
        "available": 1047424
      }
    }
  },
  "resourceUsage": {
    "userCpuSeconds": 88.8316,
    "kernelCpuSeconds": 4.61058,
    "cpuConsumptionPercent": 129.781,
    "maxRss": 2532055187456,
    "pageFaults": {
      "IORequired": 2,
      "IONotRequired": 1421441
    },
    "fsActivity": {
      "reads": 0,
      "writes": 0
    }
  },
  "libuv": [
  ],
  "environmentVariables": {
    "npm_config_dry_run": "",
    "npm_config_legacy_bundling": "",
    "npm_config_save_dev": "",
    "npm_package_scripts_test_e2e": "jest --config ./test/jest-e2e.json",
    "npm_package_devDependencies_prettier": "^1.18.2",
    "npm_package_jest_coverageDirectory": "../coverage",
    "npm_config_browser": "",
    "npm_config_commit_hooks": "true",
    "npm_config_only": "",
    "npm_config_viewer": "man",
    "npm_config_also": "",
    "TERM_PROGRAM": "vscode",
    "npm_config_rollback": "true",
    "npm_config_sign_git_commit": "",
    "npm_package_dependencies__types_bcrypt": "^3.0.0",
    "npm_config_audit": "true",
    "npm_config_usage": "",
    "NODE": "/usr/local/bin/node",
    "npm_package_devDependencies__nestjs_testing": "^6.10.14",
    "npm_package_devDependencies_typescript": "^3.7.4",
    "npm_package_jest_testEnvironment": "node",
    "INIT_CWD": "/Users/anton/Desktop/JavaScript/finding-vulnerabilities-project/server",
    "SHELL": "/bin/zsh",
    "TERM": "xterm-256color",
    "npm_package_devDependencies_jest": "^24.9.0",
    "npm_config_globalignorefile": "/usr/local/etc/npmignore",
    "npm_package_jest_transform_______t_j_s_": "ts-jest",
    "npm_config_init_author_url": "",
    "npm_config_maxsockets": "50",
    "npm_config_shell": "/bin/zsh",
    "TMPDIR": "/var/folders/3d/ckqs92m11n505sfb344gv1680000gn/T/",
    "npm_config_metrics_registry": "https://registry.npmjs.org/",
    "npm_config_parseable": "",
    "npm_config_shrinkwrap": "true",
    "npm_package_scripts_seed": "ts-node ./src/database/seed/seed.ts",
    "npm_package_scripts_lint": "eslint \"{src,apps,libs,test}/**/*.ts\" --fix",
    "npm_package_dependencies_joi": "^14.3.1",
    "npm_package_devDependencies_supertest": "^4.0.2",
    "npm_config_init_license": "ISC",
    "npm_config_timing": "",
    "TERM_PROGRAM_VERSION": "1.45.1",
    "npm_package_dependencies_rimraf": "^3.0.0",
    "npm_config_if_present": "",
    "npm_config_cache_max": "Infinity",
    "npm_config_init_author_email": "",
    "npm_config_sign_git_tag": "",
    "TF_SHELL": "zsh",
    "npm_config_cert": "",
    "npm_config_git_tag_version": "true",
    "npm_config_local_address": "",
    "npm_config_long": "",
    "npm_config_preid": "",
    "npm_config_fetch_retries": "2",
    "npm_config_noproxy": "",
    "npm_config_registry": "https://registry.npmjs.org/",
    "ZSH": "/Users/anton/.oh-my-zsh",
    "TF_ALIAS": "fuck",
    "npm_package_dependencies__hapi_joi": "^17.1.1",
    "TF_SHELL_ALIASES": "-='cd -'\n...=../..\n....=../../..\n.....=../../../..\n......=../../../../..\n1='cd -'\n2='cd -2'\n3='cd -3'\n4='cd -4'\n5='cd -5'\n6='cd -6'\n7='cd -7'\n8='cd -8'\n9='cd -9'\n:3=echo\n']'='. ranger'\n_='sudo '\nafind='ack -il'\nalwayz='tail -f'\nbaidu='web_search baidu'\nbcubc='brew cask reinstall $(brew cask outdated) && brew cleanup'\nbcubo='brew update && brew cask outdated'\nbing='web_search bing'\nbrewp='brew pin'\nbrews='brew list -1'\nbrewsp='brew list --pinned'\nbringz='git pull'\nbtw=nice\nbubc='brew upgrade && brew cleanup'\nbubo='brew update && brew outdated'\nbubu='bubo && bubc'\nbyes=exit\nchicken='git add'\nclr=clear\ncpex='cp -r \"${PWD}\" /Users/anton/Desktop/JavaScript/nest-js/\"tlk-\"\"-\"\"$(basename ${PWD%/*})\" && cd /Users/anton/Desktop/JavaScript/nest-js/\"ex-\"\"-\"\"$(basename ${PWD%})\" && echo \"Folder copied!\" && pwd && lsx'\ncya=reboot\nddg='web_search duckduckgo'\ndesktop='cd ~/Desktop'\ndonotwant=rm\ndowant=cp\ndownloads='cd ~/Library/Mobile\\ Documents/com~apple~CloudDocs/Downloads'\nducky='web_search duckduckgo \\!'\necosia='web_search ecosia'\negrep='egrep --color=auto --exclude-dir={.bzr,CVS,.git,.hg,.svn,.idea,.tox}'\nfgrep='fgrep --color=auto --exclude-dir={.bzr,CVS,.git,.hg,.svn,.idea,.tox}'\nfinder=ofd\ng=git\nga='git add'\ngaa='git add --all'\ngac='git add . && git commit -a -m'\ngam='git am'\ngama='git am --abort'\ngamc='git am --continue'\ngams='git am --skip'\ngamscp='git am --show-current-patch'\ngap='git apply'\ngapa='git add --patch'\ngapt='git apply --3way'\ngau='git add --update'\ngav='git add --verbose'\ngb='git branch'\ngbD='git branch -D'\ngba='git branch -a'\ngbd='git branch -d'\ngbda='git branch --no-color --merged | command grep -vE \"^(\\+|\\*|\\s*(master|development|develop|devel|dev)\\s*$)\" | command xargs -n 1 git branch -d'\ngbl='git blame -b -w'\ngbnm='git branch --no-merged'\ngbr='git branch --remote'\ngbs='git bisect'\ngbsb='git bisect bad'\ngbsg='git bisect good'\ngbsr='git bisect reset'\ngbss='git bisect start'\ngc='git commit -v'\n'gc!'='git commit -v --amend'\ngca='git commit -v -a'\n'gca!'='git commit -v -a --amend'\ngcam='git commit -a -m'\n'gcan!'='git commit -v -a --no-edit --amend'\n'gcans!'='git commit -v -a -s --no-edit --amend'\ngcb='git checkout -b'\ngcd='git checkout develop'\ngcf='git config --list'\ngcl='git clone --recurse-submodules'\ngclean='git clean -id'\ngcm='git checkout master'\ngcmsg='git commit -m'\n'gcn!'='git commit -v --no-edit --amend'\ngco='git checkout'\ngcom='git commit -m'\ngcount='git shortlog -sn'\ngcp='git cherry-pick'\ngcpa='git cherry-pick --abort'\ngcpc='git cherry-pick --continue'\ngcs='git commit -S'\ngcsm='git commit -s -m'\ngd='git diff'\ngdca='git diff --cached'\ngdct='git describe --tags $(git rev-list --tags --max-count=1)'\ngdcw='git diff --cached --word-diff'\ngds='git diff --staged'\ngdt='git diff-tree --no-commit-id --name-only -r'\ngdw='git diff --word-diff'\ngf='git fetch'\ngfa='git fetch --all --prune'\ngfg='git ls-files | grep'\ngfo='git fetch origin'\ngg='git gui citool'\ngga='git gui citool --amend'\nggbrat='git add . && git commit -a -m debug'\nggpull='git pull origin \"$(git_current_branch)\"'\nggpur=ggu\nggpush='git push origin \"$(git_current_branch)\"'\nggsup='git branch --set-upstream-to=origin/$(git_current_branch)'\nghh='git help'\ngignore='git update-index --assume-unchanged'\ngignored='git ls-files -v | grep \"^[[:lower:]]\"'\ngimmeh=touch\ngit-svn-dcommit-push='git svn dcommit && git push github master:svntrunk'\ngithub='web_search github'\ngivero='web_search givero'\ngk='\\gitk --all --branches'\ngke='\\gitk --all $(git log -g --pretty=%h)'\ngl='git pull'\nglg='git log --stat'\nglgg='git log --graph'\nglgga='git log --graph --decorate --all'\nglgm='git log --graph --max-count=10'\nglgp='git log --stat -p'\nglo='git log --oneline --decorate'\ngloburl='noglob urlglobber '\nglod='git log --graph --pretty='\\''%Cred%h%Creset -%C(auto)%d%Creset %s %Cgreen(%ad) %C(bold blue)<%an>%Creset'\\'\nglods='git log --graph --pretty='\\''%Cred%h%Creset -%C(auto)%d%Creset %s %Cgreen(%ad) %C(bold blue)<%an>%Creset'\\'' --date=short'\nglog='git log --oneline --decorate --graph'\ngloga='git log --oneline --decorate --graph --all'\nglol='git log --graph --pretty='\\''%Cred%h%Creset -%C(auto)%d%Creset %s %Cgreen(%cr) %C(bold blue)<%an>%Creset'\\'\nglola='git log --graph --pretty='\\''%Cred%h%Creset -%C(auto)%d%Creset %s %Cgreen(%cr) %C(bold blue)<%an>%Creset'\\'' --all'\nglols='git log --graph --pretty='\\''%Cred%h%Creset -%C(auto)%d%Creset %s %Cgreen(%cr) %C(bold blue)<%an>%Creset'\\'' --stat'\nglp=_git_log_prettily\nglum='git pull upstream master'\ngm='git merge'\ngma='git merge --abort'\ngmom='git merge origin/master'\ngmt='git mergetool --no-prompt'\ngmtvim='git mergetool --no-prompt --tool=vimdiff'\ngmum='git merge upstream/master'\ngoodreads='web_search goodreads'\ngoogle='web_search google'\ngp='git push'\ngpd='git push --dry-run'\ngpf='git push --force-with-lease'\n'gpf!'='git push --force'\ngpoat='git push origin --all && git push origin --tags'\ngpristine='git reset --hard && git clean -dffx'\ngpsup='git push --set-upstream origin $(git_current_branch)'\ngpu='git push upstream'\ngpull='git pull'\ngpush='git push'\ngpv='git push -v'\ngqcom='git commit -m Quick'\ngr='git remote'\ngra='git remote add'\ngrb='git rebase'\ngrba='git rebase --abort'\ngrbc='git rebase --continue'\ngrbd='git rebase develop'\ngrbi='git rebase -i'\ngrbm='git rebase master'\ngrbs='git rebase --skip'\ngrep='grep --color=auto --exclude-dir={.bzr,CVS,.git,.hg,.svn,.idea,.tox}'\ngrev='git revert'\ngrh='git reset'\ngrhh='git reset --hard'\ngrm='git rm'\ngrmc='git rm --cached'\ngrmv='git remote rename'\ngroh='git reset origin/$(git_current_branch) --hard'\ngrrm='git remote remove'\ngrs='git restore'\ngrset='git remote set-url'\ngrss='git restore --source'\ngrt='cd \"$(git rev-parse --show-toplevel || echo .)\"'\ngru='git reset --'\ngrup='git remote update'\ngrv='git remote -v'\ngsb='git status -sb'\ngsd='git svn dcommit'\ngsh='git show'\ngsi='git submodule init'\ngsps='git show --pretty=short --show-signature'\ngsr='git svn rebase'\ngss='git status -s'\ngst='git status'\ngsta='git stash push'\ngstaa='git stash apply'\ngstall='git stash --all'\ngstc='git stash clear'\ngstd='git stash drop'\ngstl='git stash list'\ngstp='git stash pop'\ngsts='git stash show --text'\ngstu='git stash --include-untracked'\ngsu='git submodule update'\ngsw='git switch'\ngswc='git switch -c'\ngtfo=mv\ngtl='gtl(){ git tag --sort=-v:refname -n -l \"${1}*\" }; noglob gtl'\ngts='git tag -s'\ngtv='git tag | sort -V'\ngunignore='git update-index --no-assume-unchanged'\ngunwip='git log -n 1 | grep -q -c \"\\-\\-wip\\-\\-\" && git reset HEAD~1'\ngup='git pull --rebase'\ngupa='git pull --rebase --autostash'\ngupav='git pull --rebase --autostash -v'\ngupv='git pull --rebase -v'\ngwch='git whatchanged -p --abbrev-commit --pretty=medium'\ngwip='git add -A; git rm $(git ls-files --deleted) 2> /dev/null; git commit --no-verify --no-gpg-sign -m \"--wip-- [skip ci]\"'\nh=history\nhackzor='git init'\nhai=cd\nhidefiles='defaults write com.apple.finder AppleShowAllFiles -bool false && killall Finder'\nhistory=omz_history\nhs='history | grep'\nhsi='history | grep -i'\nicanhas=mkdir\nicloud='cd ~/Library/Mobile\\ Documents/com~apple~CloudDocs/'\nihasbucket='df -h'\nimage='web_search duckduckgo \\!i'\niminurbase=finger\ninur=locate\ninvisible=cat\niz=ls\njbourne='cd ~/desktop/javascript/telerik-js-alpha/js-jan20-team-5'\njsdir='cd ~/desktop/javascript/'\nkthxbai=halt\nl='ls -lah'\nla='ls -lAh'\nletcat='git checkout'\nll='ls -lh'\nls='ls -G'\nlsa='exa -lbha'\nlss='exa -lbhs=modified'\nlsx='exa -a'\nmap='web_search duckduckgo \\!m'\nmd='mkdir -p'\nmoar=more\nnews='web_search duckduckgo \\!n'\nnomnom=killall\nnomz='ps aux'\nnowai=chmod\nnpmD='npm i -D '\nnpmE='PATH=\"$(npm bin)\":\"$PATH\"'\nnpmI='npm init'\nnpmL='npm list'\nnpmL0='npm ls --depth=0'\nnpmO='npm outdated'\nnpmP='npm publish'\nnpmR='npm run'\nnpmS='npm i -S '\nnpmV='npm -v'\nnpmg='npm i -g '\nnpmlist='npm list -g --depth=0'\nnpmst='npm start'\nnpmt='npm test'\nns='npm start'\nnvimsettings='nvim ~/.config/nvim/init.vim'\noanward='git commit -m'\nobtw=nohup\nofd='open_command $PWD'\nonoz='cat /var/log/errors.log'\nooanward='git commit -am'\nplz=pwd\npwned=ssh\nqwant='web_search qwant'\nrd=rmdir\nrefresh='source ~/.zshrc'\nrtfm=man\nrulz='git push'\nrun-help=man\nsettings='nvim ~/.zshrc'\nshowfiles='defaults write com.apple.finder AppleShowAllFiles -bool true && killall Finder'\nsp='web_search startpage'\nstackoverflow='web_search stackoverflow'\ntelerik='cd ~/desktop/javascript/alpha-javascript-jan-2020'\ntldr=less\nvim=nvim\nvimsettings='nvim ~/.vimrc'\nviolenz='git rebase'\nvisible=echo\nvsc='code .'\nvsca='code --add'\nvscd='code --diff'\nvscde='code --disable-extensions'\nvsced='code --extensions-dir'\nvscg='code --goto'\nvscie='code --install-extension'\nvscl='code --log'\nvscn='code --new-window'\nvscr='code --reuse-window'\nvscu='code --user-data-dir'\nvscue='code --uninstall-extension'\nvscv='code --verbose'\nvscw='code --wait'\nwhich-command=whence\nwiki='web_search duckduckgo \\!w'\nwolframalpha='web_search wolframalpha'\nwtf=dmesg\nx=extract\nyahoo='web_search yahoo'\nyandex='web_search yandex'\nyolo='git commit -m \"$(curl -s http://whatthecommit.com/index.txt)\"'\nyoutube='web_search duckduckgo \\!yt'\nz='_z 2>&1'",
    "npm_package_dependencies_class_validator": "^0.12.2",
    "npm_package_devDependencies_tsconfig_paths": "^3.9.0",
    "npm_package_readmeFilename": "README.md",
    "npm_config_key": "",
    "npm_config_message": "%s",
    "npm_config_versions": "",
    "USER": "anton",
    "NVM_DIR": "/Users/anton/.nvm",
    "PYTHONIOENCODING": "",
    "npm_package_description": "<p align=\"center\">   <a href=\"http://nestjs.com/\" target=\"blank\"><img src=\"https://nestjs.com/img/logo_text.svg\" width=\"320\" alt=\"Nest Logo\" /></a> </p>",
    "npm_package_license": "MIT",
    "npm_package_scripts_start_dev": "nest start --watch",
    "npm_package_scripts_prebuild": "rimraf dist",
    "npm_package_dependencies_typeorm": "^0.2.24",
    "npm_config_globalconfig": "/usr/local/etc/npmrc",
    "npm_config_always_auth": "",
    "npm_config_logs_max": "10",
    "npm_config_prefer_online": "",
    "SSH_AUTH_SOCK": "/private/tmp/com.apple.launchd.yRclj5Bfl5/Listeners",
    "__CF_USER_TEXT_ENCODING": "0x1F5:0x0:0x0",
    "npm_package_dependencies_class_transformer": "^0.2.3",
    "npm_package_devDependencies__types_express": "^4.17.2",
    "npm_package_devDependencies__types_jest": "25.1.2",
    "npm_package_devDependencies_eslint": "^6.7.2",
    "npm_package_devDependencies__typescript_eslint_eslint_plugin": "^2.12.0",
    "npm_config_cache_lock_retries": "10",
    "npm_config_global_style": "",
    "npm_execpath": "/usr/local/lib/node_modules/npm/bin/npm-cli.js",
    "PAGER": "nvim",
    "npm_package_dependencies__nestjs_jwt": "^7.0.0",
    "npm_config_cafile": "",
    "npm_config_update_notifier": "true",
    "npm_package_scripts_test_debug": "node --inspect-brk -r tsconfig-paths/register -r ts-node/register node_modules/.bin/jest --runInBand",
    "npm_package_devDependencies__types_supertest": "^2.0.8",
    "LSCOLORS": "Gxfxcxdxbxegedabagacad",
    "npm_config_audit_level": "low",
    "npm_config_heading": "npm",
    "npm_package_devDependencies__typescript_eslint_parser": "^2.12.0",
    "npm_config_fetch_retry_mintimeout": "10000",
    "npm_config_offline": "",
    "npm_config_read_only": "",
    "npm_config_searchlimit": "20",
    "PATH": "/usr/local/lib/node_modules/npm/node_modules/npm-lifecycle/node-gyp-bin:/Users/anton/Desktop/JavaScript/finding-vulnerabilities-project/server/node_modules/.bin:/Users/anton/google-cloud-sdk/bin:/Library/Frameworks/Python.framework/Versions/3.8/bin:/usr/local/bin:/usr/bin:/bin:/usr/sbin:/sbin:/Applications/VMware Fusion.app/Contents/Public:/Users/anton/google-cloud-sdk/bin:/Library/Frameworks/Python.framework/Versions/3.8/bin",
    "npm_config_argv": "{\"remain\":[],\"cooked\":[\"run\",\"start:dev\"],\"original\":[\"run\",\"start:dev\"]}",
    "npm_config_access": "",
    "npm_config_json": "",
    "npm_config_allow_same_version": "",
    "_": "/usr/local/bin/node",
    "npm_package_devDependencies__nestjs_cli": "^6.13.2",
    "npm_package_jest_testRegex": ".spec.ts$",
    "npm_config_description": "true",
    "npm_config_engine_strict": "",
    "npm_config_https_proxy": "",
    "npm_package_author": "",
    "npm_package_devDependencies_ts_jest": "25.2.0",
    "npm_config_init_module": "/Users/anton/.npm-init.js",
    "npm_config_userconfig": "/Users/anton/.npmrc",
    "PWD": "/Users/anton/Desktop/JavaScript/finding-vulnerabilities-project/server",
    "npm_config_cidr": "",
    "npm_package_scripts_start_debug": "nest start --debug --watch",
    "npm_package_scripts_test_watch": "jest --watch",
    "npm_config_user": "",
    "npm_config_node_version": "13.8.0",
    "EDITOR": "nvim",
    "npm_lifecycle_event": "start:dev",
    "LANG": "en_US.UTF-8",
    "npm_package_name": "server",
    "npm_config_auth_type": "legacy",
    "npm_config_editor": "nvim",
    "npm_config_ignore_prepublish": "",
    "npm_config_save": "true",
    "npm_package_devDependencies_eslint_plugin_import": "^2.19.1",
    "npm_config_script_shell": "",
    "npm_config_tag": "latest",
    "npm_package_scripts_build": "nest build",
    "npm_package_scripts_start": "nest start",
    "npm_package_dependencies_rxjs": "^6.5.4",
    "npm_config_before": "",
    "npm_config_global": "",
    "npm_config_progress": "true",
    "XPC_FLAGS": "0x0",
    "npm_package_scripts_test_cov": "jest --coverage",
    "npm_package_dependencies__nestjs_core": "^6.10.14",
    "npm_package_devDependencies_ts_loader": "^6.2.1",
    "npm_config_ham_it_up": "",
    "npm_config_optional": "true",
    "npm_config_searchstaleness": "900",
    "npm_package_dependencies_fs": "0.0.1-security",
    "npm_config_bin_links": "true",
    "npm_config_force": "",
    "npm_config_save_prod": "",
    "npm_package_dependencies__nestjs_common": "^6.10.14",
    "npm_config_searchopts": "",
    "npm_package_scripts_start_prod": "node dist/main",
    "npm_package_devDependencies_eslint_config_prettier": "^6.7.0",
    "npm_config_depth": "Infinity",
    "npm_config_node_gyp": "/usr/local/lib/node_modules/npm/node_modules/node-gyp/bin/node-gyp.js",
    "XPC_SERVICE_NAME": "0",
    "npm_package_version": "0.0.1",
    "npm_config_rebuild_bundle": "true",
    "npm_config_sso_poll_frequency": "500",
    "npm_config_unicode": "true",
    "HOME": "/Users/anton",
    "SHLVL": "3",
    "npm_package_dependencies__types_unzipper": "^0.10.3",
    "npm_package_dependencies_passport_jwt": "^4.0.0",
    "npm_package_devDependencies__nestjs_schematics": "^6.8.1",
    "VSCODE_GIT_ASKPASS_MAIN": "/Applications/Visual Studio Code.app/Contents/Resources/app/extensions/git/dist/askpass-main.js",
    "npm_package_scripts_test": "jest",
    "npm_config_fetch_retry_maxtimeout": "60000",
    "npm_config_ca": "",
    "npm_config_loglevel": "notice",
    "npm_config_save_prefix": "^",
    "npm_config_scripts_prepend_node_path": "warn-only",
    "npm_config_sso_type": "oauth",
    "npm_config_strict_ssl": "true",
    "npm_config_tag_version_prefix": "v",
    "npm_config_dev": "",
    "npm_config_fetch_retry_factor": "10",
    "npm_config_group": "20",
    "npm_config_save_exact": "",
    "npm_config_cache_lock_stale": "60000",
    "npm_config_prefer_offline": "",
    "npm_config_version": "",
    "npm_package_dependencies__nestjs_typeorm": "^7.0.0",
    "npm_package_devDependencies_ts_node": "^8.6.0",
    "npm_config_cache_min": "10",
    "npm_config_otp": "",
    "LOGNAME": "anton",
    "LESS": "-R",
    "npm_package_scripts_format": "prettier --write \"src/**/*.ts\" \"test/**/*.ts\"",
    "npm_config_cache": "/Users/anton/.npm",
    "npm_config_searchexclude": "",
    "VISUAL": "nvim",
    "npm_package_dependencies__nestjs_config": "^0.4.1",
    "npm_package_dependencies__nestjs_passport": "^7.0.0",
    "npm_package_dependencies_reflect_metadata": "^0.1.13",
    "npm_config_color": "true",
    "npm_lifecycle_script": "nest start --watch",
    "VSCODE_GIT_IPC_HANDLE": "/var/folders/3d/ckqs92m11n505sfb344gv1680000gn/T/vscode-git-1a4cb6c4f1.sock",
    "npm_package_jest_moduleFileExtensions_2": "ts",
    "npm_config_package_lock": "true",
    "npm_config_proxy": "",
    "npm_package_jest_moduleFileExtensions_1": "json",
    "npm_config_fund": "true",
    "npm_config_package_lock_only": "",
    "npm_package_jest_moduleFileExtensions_0": "js",
    "npm_config_save_optional": "",
    "npm_config_user_agent": "npm/6.14.2 node/v13.8.0 darwin x64",
    "npm_config_ignore_scripts": "",
    "GIT_ASKPASS": "/Applications/Visual Studio Code.app/Contents/Resources/app/extensions/git/dist/askpass.sh",
    "VSCODE_GIT_ASKPASS_NODE": "/Applications/Visual Studio Code.app/Contents/Frameworks/Code Helper (Renderer).app/Contents/MacOS/Code Helper (Renderer)",
    "npm_package_devDependencies__types_node": "^13.1.6",
    "npm_config_cache_lock_wait": "10000",
    "npm_package_dependencies__nestjs_platform_express": "^6.10.14",
    "npm_package_dependencies_pg": "^8.1.0",
    "npm_package_dependencies_unzipper": "^0.10.11",
    "npm_config_production": "",
    "npm_config_save_bundle": "",
    "npm_config_send_metrics": "",
    "npm_package_dependencies_postgres": "^1.0.2",
    "npm_config_init_version": "1.0.0",
    "npm_config_node_options": "",
    "npm_config_umask": "0022",
    "npm_config_scope": "",
    "npm_config_git": "git",
    "npm_config_init_author_name": "",
    "npm_config_unsafe_perm": "true",
    "npm_config_onload_script": "",
    "npm_config_tmp": "/var/folders/3d/ckqs92m11n505sfb344gv1680000gn/T",
    "COLORTERM": "truecolor",
    "npm_package_dependencies_bcrypt": "^4.0.1",
    "npm_package_dependencies_passport": "^0.4.1",
    "npm_package_jest_rootDir": "src",
    "npm_config_format_package_lock": "true",
    "npm_config_link": "",
    "npm_config_prefix": "/usr/local",
    "npm_node_execpath": "/usr/local/bin/node",
    "DB_TYPE": "postgres",
    "DB_HOST": "localhost",
    "DB_PORT": "3307",
    "DB_USERNAME": "anton",
    "DB_PASSWORD": "donthackmebr0",
    "DB_DATABASE_NAME": "finalprojects",
    "PORT": "3000",
    "JWT_SECRET": "helloworld",
    "JWT_EXPIRE_TIME": "36000"
  },
  "userLimits": {
    "core_file_size_blocks": {
      "soft": 0,
      "hard": "unlimited"
    },
    "data_seg_size_kbytes": {
      "soft": "unlimited",
      "hard": "unlimited"
    },
    "file_size_blocks": {
      "soft": "unlimited",
      "hard": "unlimited"
    },
    "max_locked_memory_bytes": {
      "soft": "unlimited",
      "hard": "unlimited"
    },
    "max_memory_size_kbytes": {
      "soft": "unlimited",
      "hard": "unlimited"
    },
    "open_files": {
      "soft": 10240,
      "hard": "unlimited"
    },
    "stack_size_bytes": {
      "soft": 8388608,
      "hard": 67104768
    },
    "cpu_time_seconds": {
      "soft": "unlimited",
      "hard": "unlimited"
    },
    "max_user_processes": {
      "soft": 1392,
      "hard": 2088
    },
    "virtual_memory_kbytes": {
      "soft": "unlimited",
      "hard": "unlimited"
    }
  },
  "sharedObjects": [
    "/usr/local/bin/node",
    "/System/Library/Frameworks/CoreFoundation.framework/Versions/A/CoreFoundation",
    "/usr/lib/libSystem.B.dylib",
    "/usr/lib/libc++.1.dylib",
    "/usr/lib/libobjc.A.dylib",
    "/usr/lib/libfakelink.dylib",
    "/usr/lib/libDiagnosticMessagesClient.dylib",
    "/usr/lib/libicucore.A.dylib",
    "/usr/lib/libz.1.dylib",
    "/usr/lib/libc++abi.dylib",
    "/usr/lib/system/libcache.dylib",
    "/usr/lib/system/libcommonCrypto.dylib",
    "/usr/lib/system/libcompiler_rt.dylib",
    "/usr/lib/system/libcopyfile.dylib",
    "/usr/lib/system/libcorecrypto.dylib",
    "/usr/lib/system/libdispatch.dylib",
    "/usr/lib/system/libdyld.dylib",
    "/usr/lib/system/libkeymgr.dylib",
    "/usr/lib/system/liblaunch.dylib",
    "/usr/lib/system/libmacho.dylib",
    "/usr/lib/system/libquarantine.dylib",
    "/usr/lib/system/libremovefile.dylib",
    "/usr/lib/system/libsystem_asl.dylib",
    "/usr/lib/system/libsystem_blocks.dylib",
    "/usr/lib/system/libsystem_c.dylib",
    "/usr/lib/system/libsystem_configuration.dylib",
    "/usr/lib/system/libsystem_coreservices.dylib",
    "/usr/lib/system/libsystem_darwin.dylib",
    "/usr/lib/system/libsystem_dnssd.dylib",
    "/usr/lib/system/libsystem_featureflags.dylib",
    "/usr/lib/system/libsystem_info.dylib",
    "/usr/lib/system/libsystem_m.dylib",
    "/usr/lib/system/libsystem_malloc.dylib",
    "/usr/lib/system/libsystem_networkextension.dylib",
    "/usr/lib/system/libsystem_notify.dylib",
    "/usr/lib/system/libsystem_sandbox.dylib",
    "/usr/lib/system/libsystem_secinit.dylib",
    "/usr/lib/system/libsystem_kernel.dylib",
    "/usr/lib/system/libsystem_platform.dylib",
    "/usr/lib/system/libsystem_pthread.dylib",
    "/usr/lib/system/libsystem_symptoms.dylib",
    "/usr/lib/system/libsystem_trace.dylib",
    "/usr/lib/system/libunwind.dylib",
    "/usr/lib/system/libxpc.dylib",
    "/Users/anton/Desktop/JavaScript/finding-vulnerabilities-project/server/node_modules/bcrypt/lib/binding/napi-v3/bcrypt_lib.node",
    "/usr/lib/libnetwork.dylib",
    "/usr/lib/libpcap.A.dylib",
    "/System/Library/Frameworks/IOKit.framework/Versions/A/IOKit",
    "/usr/lib/libcoretls.dylib",
    "/usr/lib/libcoretls_cfhelpers.dylib",
    "/System/Library/Frameworks/Security.framework/Versions/A/Security",
    "/usr/lib/libapple_nghttp2.dylib",
    "/usr/lib/libenergytrace.dylib",
    "/usr/lib/libbsm.0.dylib",
    "/usr/lib/system/libkxld.dylib",
    "/System/Library/Frameworks/Foundation.framework/Versions/C/Foundation",
    "/System/Library/PrivateFrameworks/AppleFSCompression.framework/Versions/A/AppleFSCompression",
    "/usr/lib/libpam.2.dylib",
    "/usr/lib/libsqlite3.dylib",
    "/usr/lib/libxar.1.dylib",
    "/usr/lib/libauto.dylib",
    "/usr/lib/libcompression.dylib",
    "/System/Library/Frameworks/DiskArbitration.framework/Versions/A/DiskArbitration",
    "/usr/lib/libarchive.2.dylib",
    "/usr/lib/libxml2.2.dylib",
    "/System/Library/Frameworks/SystemConfiguration.framework/Versions/A/SystemConfiguration",
    "/System/Library/Frameworks/CoreServices.framework/Versions/A/CoreServices",
    "/usr/lib/liblangid.dylib",
    "/usr/lib/libCRFSuite.dylib",
    "/System/Library/Frameworks/CFNetwork.framework/Versions/A/CFNetwork",
    "/usr/lib/liblzma.5.dylib",
    "/usr/lib/libbz2.1.0.dylib",
    "/usr/lib/libiconv.2.dylib",
    "/usr/lib/libcharset.1.dylib",
    "/System/Library/Frameworks/CoreServices.framework/Versions/A/Frameworks/FSEvents.framework/Versions/A/FSEvents",
    "/System/Library/Frameworks/CoreServices.framework/Versions/A/Frameworks/CarbonCore.framework/Versions/A/CarbonCore",
    "/System/Library/Frameworks/CoreServices.framework/Versions/A/Frameworks/Metadata.framework/Versions/A/Metadata",
    "/System/Library/Frameworks/CoreServices.framework/Versions/A/Frameworks/OSServices.framework/Versions/A/OSServices",
    "/System/Library/Frameworks/CoreServices.framework/Versions/A/Frameworks/SearchKit.framework/Versions/A/SearchKit",
    "/System/Library/Frameworks/CoreServices.framework/Versions/A/Frameworks/AE.framework/Versions/A/AE",
    "/System/Library/Frameworks/CoreServices.framework/Versions/A/Frameworks/LaunchServices.framework/Versions/A/LaunchServices",
    "/System/Library/Frameworks/CoreServices.framework/Versions/A/Frameworks/DictionaryServices.framework/Versions/A/DictionaryServices",
    "/System/Library/Frameworks/CoreServices.framework/Versions/A/Frameworks/SharedFileList.framework/Versions/A/SharedFileList",
    "/System/Library/Frameworks/NetFS.framework/Versions/A/NetFS",
    "/System/Library/PrivateFrameworks/NetAuth.framework/Versions/A/NetAuth",
    "/System/Library/PrivateFrameworks/login.framework/Versions/A/Frameworks/loginsupport.framework/Versions/A/loginsupport",
    "/System/Library/PrivateFrameworks/TCC.framework/Versions/A/TCC",
    "/System/Library/PrivateFrameworks/CoreNLP.framework/Versions/A/CoreNLP",
    "/System/Library/PrivateFrameworks/MetadataUtilities.framework/Versions/A/MetadataUtilities",
    "/usr/lib/libmecabra.dylib",
    "/System/Library/Frameworks/Accelerate.framework/Versions/A/Accelerate",
    "/usr/lib/libmecab.dylib",
    "/usr/lib/libgermantok.dylib",
    "/usr/lib/libThaiTokenizer.dylib",
    "/usr/lib/libChineseTokenizer.dylib",
    "/System/Library/Frameworks/Accelerate.framework/Versions/A/Frameworks/vImage.framework/Versions/A/vImage",
    "/System/Library/Frameworks/Accelerate.framework/Versions/A/Frameworks/vecLib.framework/Versions/A/vecLib",
    "/System/Library/Frameworks/Accelerate.framework/Versions/A/Frameworks/vecLib.framework/Versions/A/libvMisc.dylib",
    "/System/Library/Frameworks/Accelerate.framework/Versions/A/Frameworks/vecLib.framework/Versions/A/libvDSP.dylib",
    "/System/Library/Frameworks/Accelerate.framework/Versions/A/Frameworks/vecLib.framework/Versions/A/libBLAS.dylib",
    "/System/Library/Frameworks/Accelerate.framework/Versions/A/Frameworks/vecLib.framework/Versions/A/libLAPACK.dylib",
    "/System/Library/Frameworks/Accelerate.framework/Versions/A/Frameworks/vecLib.framework/Versions/A/libLinearAlgebra.dylib",
    "/System/Library/Frameworks/Accelerate.framework/Versions/A/Frameworks/vecLib.framework/Versions/A/libSparseBLAS.dylib",
    "/System/Library/Frameworks/Accelerate.framework/Versions/A/Frameworks/vecLib.framework/Versions/A/libQuadrature.dylib",
    "/System/Library/Frameworks/Accelerate.framework/Versions/A/Frameworks/vecLib.framework/Versions/A/libBNNS.dylib",
    "/System/Library/Frameworks/Accelerate.framework/Versions/A/Frameworks/vecLib.framework/Versions/A/libSparse.dylib",
    "/System/Library/PrivateFrameworks/LanguageModeling.framework/Versions/A/LanguageModeling",
    "/System/Library/PrivateFrameworks/CoreEmoji.framework/Versions/A/CoreEmoji",
    "/System/Library/PrivateFrameworks/LinguisticData.framework/Versions/A/LinguisticData",
    "/System/Library/PrivateFrameworks/Lexicon.framework/Versions/A/Lexicon",
    "/usr/lib/libcmph.dylib",
    "/System/Library/Frameworks/OpenDirectory.framework/Versions/A/Frameworks/CFOpenDirectory.framework/Versions/A/CFOpenDirectory",
    "/System/Library/Frameworks/OpenDirectory.framework/Versions/A/OpenDirectory",
    "/System/Library/PrivateFrameworks/APFS.framework/Versions/A/APFS",
    "/System/Library/Frameworks/SecurityFoundation.framework/Versions/A/SecurityFoundation",
    "/usr/lib/libutil.dylib",
    "/System/Library/PrivateFrameworks/CoreServicesStore.framework/Versions/A/CoreServicesStore",
    "/System/Library/Frameworks/ServiceManagement.framework/Versions/A/ServiceManagement",
    "/System/Library/PrivateFrameworks/BackgroundTaskManagement.framework/Versions/A/BackgroundTaskManagement",
    "/usr/lib/libxslt.1.dylib",
    "/usr/lib/libusrtcp.dylib"
  ]
}